…
## 5 - Further analyses

``` r
# I notice a weird token."ma" is Warren's most "important" word. Unclear what that is. Let's investigate:
warren <- politicians_clean %>% filter(screen_name == "SenWarren")

warren %>% 
  filter(str_detect(text, "ma")) %>% 
  select(text)
```

    ## # A tibble: 398 x 1
    ##    text                                                                    
    ##    <chr>                                                                   
    ##  1 The @USArmy’s report suggests ways it can combat the #ClimateCrisis: re~
    ##  2 A @USArmy report says the climate crisis will cause more frequent power~
    ##  3 @RepCummings Chairman @RepCummings introduced the CARE Act w/ @SenWarre~
    ##  4 Amazon Web Services knew – or should have known – that its servers used~
    ##  5 Today @SenDuckworth, @SenWarren, @SenBlumenthal and I demanded the Trum~
    ##  6 I’m concerned that big banks are using short-term lending market volati~
    ##  7 Almost 2/3 of US hospitals outsource physician staffing, many to compan~
    ##  8 Sec. @BetsyDeVosED has given a free pass to every swindler &amp; crook ~
    ##  9 Starting in 2007, our country made a promise to public servants: pay yo~
    ## 10 Secretary @BetsyDeVosED &amp; the Trump admin wrecked the Public Servic~
    ## # ... with 388 more rows

#### Nothing looks weird above (“ma” is not being used separately from a quick visual inspection). So its happening in the tidying step somewhere? This will take some more investigation. What I’m doing is identifiying full tweets that contain “ma” as produced by the tidy function.

``` r
warren_clean <- warren %>% mutate(idx = row_number()) %>% select(idx,text)
warren_tidy <- warren_clean %>%  unnest_tokens(word, text, token = "tweets")
check <- warren_tidy %>% filter(word == "ma") %>% mutate(check = 1) %>% select(idx, check)
warren_check <- warren_clean %>% left_join(check, by = "idx") %>% filter(check == 1)
warren_check
```

    ## # A tibble: 37 x 3
    ##      idx text                                                         check
    ##    <int> <chr>                                                        <dbl>
    ##  1    13 Gwen Ifill was a talented journalist, a trailblazer for wom~     1
    ##  2    15 I’ve spent years fighting side-by-side with our fearless @M~     1
    ##  3    31 Good luck to everyone participating in the Head of the Char~     1
    ##  4    85 11 people have contracted #EEE in MA &amp; 4 have died. @Se~     1
    ##  5   103 Way to go, Boston! I’m proud of our students from across MA~     1
    ##  6   143 18 years ago, nearly 3,000 Americans – including 206 people~     1
    ##  7   159 Five people in MA this year have contracted Eastern equine ~     1
    ##  8   164 I’m concerned about reports of two separate incidents of ra~     1
    ##  9   175 People come to MA from around the world to receive life-sav~     1
    ## 10   181 This pick for @CFPB Student Loan Ombudsman is a slap in the~     1
    ## # ... with 27 more rows
…
